{
"rules" :[
	{
		"media_class"	: "tv",
		"transport"		: "FMP4",
		"value"			: "http://208.91.253.209/live/{VARIANT}/{MID}/live/{SKUID}.fmp4"
	},
	{
		"media_class"	: "vod",
		"transport"		: "FMP4",
		"value"			: "http://208.91.253.211/vod/{VARIANT}/{MID}.mp4/start/{SKUID}.fmp4"
	},
	{
		"media_class"	: "recording",
		"transport"		: "FMP4",
		"value"			: "http://208.91.253.211/recordings/{VARIANT}/{MID}/{TS}.mp4/init/{SKUID}.fmp4"
	},
	{ 
		"media_class"	: "tv",
		"transport"		: "AS",
		"value"			: "http://208.91.253.209/live_hls/{MID}/{SKUID}/{VARIANT}.m3u8"
	},
	{ 
		"media_class"	: "vod",
		"transport"		: "AS",
		"value"			: "http://208.91.253.211/vod_hls/{MID}/{SKUID}/{VARIANT}.m3u8"
	},
	{
		"media_class"	: "recording",
		"transport"		: "AS",
		"value"			: "http://208.91.253.211/recordings_hls/{MID}/{SKUID}/{VARIANT}.m3u8"
	}
	]
}

