{
    "rules": [
        {
            "device": "iPhone",
            "value": {
                "4x3": "SD_PHONE",
                "16x9": "HD_PHONE"
            }
        },
        {
            "device": "iPad",
            "value": {
                "4x3": "SD_TABLET",
                "16x9": "HD_TABLET"
            }
        },
        {
            "device_type": "pc",
            "value": {
                "4x3": "H3_W360_H264BP",
                "16x9": "H8_W360_H264BP"
            }
        },
        {
            "device_type": "stb",
            "value": {
                "4x3": "H24_S480_H264_MP",
                "16x9": "H13_W360_H264_MP"
            }
        },
        {
            "platform": "android",
            "value": {
                "4x3": "H5_S360_H264_MP",
                "16x9": "H5_W270_H264_MP"
            }
        }
    ]
}
