# This file represents a mapping between numeric encoding-id values and their 
# string equivalents.  When the VoD segemnter receives an encoding request 
# with a numeric Id, it uses the string equivalent in the URLs represented in 
# the generated playlists.

# Encrypted HLS Standard QVGA (4x3) Progressive Download Encodings
270=CDMAQVGAH264
271=H3QVGAH264
272=H8QVGAH264
273=H8VGAH264
274=H1QVGAH264
277=EVDOQVGAH264
278=H2QVGAH264
279=H5QVGAH264

# Encrypted WQVGA (16x9) Progressive Download Encodings
260=CDMAWQVGAH264
261=H3WQVGAH264
262=H8WQVGAH264
263=H8WVGAH264
264=H1WQVGAH264
267=EVDOWQVGAH264
268=H2WQVGAH264
269=H5WQVGAH264

# Encrypted WVGA Progressive Download Encodings
265=H5WVGAH264
266=H8WVGAH264
275=H12WVGAH264

# Non-encrypted HLS Standard QVGA (4x3) Progressive Download Encodings
370=CDMAQVGAH264
371=H3QVGAH264
372=H8QVGAH264
373=H8VGAH264
374=H1QVGAH264
377=EVDOQVGAH264
378=H2QVGAH264
379=H5QVGAH264

# Non-encrypted HLS WQVGA (16x9) Progressive Download Encodings
360=CDMAWQVGAH264
361=H3WQVGAH264
362=H8WQVGAH264
363=H8WVGAH264
364=H1WQVGAH264
367=EVDOWQVGAH264
368=H2WQVGAH264

# DT HLS Encodings
231=H1384X216H264
232=H2384X216H264
233=H4384X216H264
234=H6384X216H264
235=H9360PH264
236=H13360PH264

# FMP4 Encodings
403=EVDOQVGAH264
404=CDMAQVGAH264
412=H1QVGAH264
413=H2QVGAH264
414=H5QVGAH264
415=H8QVGAH264
418=H3QVGAH264
421=CDMAWQVGAH264
422=EVDOWQVGAH264
423=H1WQVGAH264
424=H2WQVGAH264
425=H3WQVGAH264
426=H5WQVGAH264
427=H8WQVGAH264
484=H5NSVGAH264
485=H8NSVGAH264
486=H12NSVGAH264
487=H5360pH264
488=H8360pH264
489=H12360pH264

# Sprint TV Progressive download HLS Encrypted encodings
244=H12VGAH264
245=H5WHVGAH264
246=H8360pH264
247=H12360pH264

# Sprint TV Progressive download HLS Non-Encrypted encodings
344=H12VGAH264
345=H5WHVGAH264
346=H8360pH264
347=H12360pH264

# Sprint TV RTSP FMP4 encodings
442=H12VGAH264
443=H5WHVGAH264

# Apple segment already in production
# Mobile HD Progressive Download Encodings
280=H5FNVGAH264MP
281=H8NSVGAH264MP
282=H12NSVGAH264MP
283=H5WHVGAH264MP

# SprintTV 6.0 FMP4
448=CDMAQVGAH264
449=CDMAWQVGAH264
450=H1QVGAH264
451=H1WQVGAH264
452=H5HVGAH264
443=H5WHVGAH264
453=H8HVGAH264
442=H12VGAH264
454=H8360pH264
455=H12360p424

# SprintTV 6.0 HLS
256=CDMAQVGAH264
257=CDMAWQVGAH264
258=H1QVGAH264
259=H1WQVGAH264
294=H2QVGAH264
295=H2WQVGAH264
296=H3QVGAH264
297=H3WQVGAH264
298=H5QVGAH264
299=H5WQVGAH264
237=H5HVGAH264
245=H5WHVGAH264
238=H8HVGAH264
246=H8360pH264
247=H12360pH264
244=H12VGAH264

356=CDMAQVGAH264
357=CDMAWQVGAH264
358=H1QVGAH264
359=H1WQVGAH264
394=H2QVGAH264
395=H2WQVGAH264
396=H3QVGAH264
397=H3WQVGAH264
398=H5QVGAH264
399=H5WQVGAH264
337=H5HVGAH264
345=H5WHVGAH264
338=H8HVGAH264
346=H8360pH264
347=H12360pH264
344=H12VGAH264


# NFL encodings (5000-based)
5401=H3WHVGAH264
5402=H5WHVGAH264
5403=H8360pH264
5404=H12360pH264

#Sprint Multi-screen HLS, Have to edit this to point to exact encodings
391=H12VGAH264
392=H12360pH264

##Sprint Multi-screen FMP4
481=H12360p424
482=H8360pH264
