displayName, solrName, comparingWithLowerCase, filter, sorting, facet
# common fields
name, name_tsi, false, true, false, false
genre_list, genre_list_ssmi, false, true, false, true
category, category_ssmi, true, true, false, true
network, network_ssi, true, true, true, true
sku_ids, sku_ids_ssmi, false, true, false, true
year, year_ssi, false, true, true, true
original_air_date, original_air_date_dsi, false, false, true, false
provider_id, provider_id_ssi, false, true, false, true
rating, rating_ssi, true, true, false, false
parental_control_minimun_age, episode__minimum_age_isi, false, true, false, false
child_protection_rating, episode__child_protection_rating_ssi, true, true, false, false
countries_of_production_list, episode__countries_of_production_list_ssmi, true, true, false, false
type, type_ssi, false, false, false, true
sub_type, sub_type_ssi, false, false, false, true

# additional VOD, Episode, Series fields
start_of_availability, start_of_availability_dsi, false, true, true, false

# additional Program fields
start_time, start_time_dsi, false, true, true, false
timeslice,timeslice,false, true, false, false
sub_title, sub_title_ssi, false, false, true, false
channel_id, channel_id_ssi, false, false, true, false

# additional Cast fields
first_name, first_name_ssi, false, true, true, false
last_name, last_name_ssi, false, true, true, false

# additional Packages fields
price, price_ssi, false, false, true, false

#additional sorting fields for OnDemand API
episode_number,episode_number_lsi,false,false,true,false
id,id_ssi,false,false,true,false

item_type, em_item_type_ssi, true, true, false, false
is_episode,em_is_episode_ssi,true,true,false,false
series_id,series_id_ssi,false,true,false,false
audio_languages_list,audio_languages_list_ssmi,false, true, false, true
