[
    "msfrn01p8.smf1.mobitv",
    "msfrn02p8.smf1.mobitv",
    "msfrn03p8.smf1.mobitv",
    "msfrn04p8.smf1.mobitv",
    "msfrn05p8.smf1.mobitv",
    "msfrn06p8.smf1.mobitv",
    "msfrn07p8.smf1.mobitv",
    "msfrn08p8.smf1.mobitv"
]

